{
"response": {
"status": "ok",
"userTier": "developer",
"total": 201319,
"startIndex": 1,
"pageSize": 10,
"currentPage": 1,
"pages": 20132,
"orderBy": "relevance",
"results": [
{
"id": "football/quiz/2010/feb/25/liverpool",
"type": "article",
"sectionId": "football",
"sectionName": "Football",
"webPublicationDate": "2018-04-24T10:52:46Z",
"webTitle": "Football quiz: Liverpool in Europe",
"webUrl": "https://www.theguardian.com/football/quiz/2010/feb/25/liverpool",
"apiUrl": "https://content.guardianapis.com/football/quiz/2010/feb/25/liverpool",
"isHosted": false,
"pillarId": "pillar/sport",
"pillarName": "Sport"
},
{
"id": "football/2018/jun/08/ange-postecoglou-australian-football-is-going-backwards",
"type": "article",
"sectionId": "football",
"sectionName": "Football",
"webPublicationDate": "2018-06-07T18:00:51Z",
"webTitle": "Ange Postecoglou: 'Australian football is going backwards' | Oliver Trenchard",
"webUrl": "https://www.theguardian.com/football/2018/jun/08/ange-postecoglou-australian-football-is-going-backwards",
"apiUrl": "https://content.guardianapis.com/football/2018/jun/08/ange-postecoglou-australian-football-is-going-backwards",
"isHosted": false,
"pillarId": "pillar/sport",
"pillarName": "Sport"
},
{
"id": "football/2018/aug/30/football-transfer-rumours-celtics-moussa-dembele-set-for-lyon-exit",
"type": "article",
"sectionId": "football",
"sectionName": "Football",
"webPublicationDate": "2018-08-30T07:11:22Z",
"webTitle": "Football transfer rumours: Celtic's Moussa Dembélé set for Lyon exit?",
"webUrl": "https://www.theguardian.com/football/2018/aug/30/football-transfer-rumours-celtics-moussa-dembele-set-for-lyon-exit",
"apiUrl": "https://content.guardianapis.com/football/2018/aug/30/football-transfer-rumours-celtics-moussa-dembele-set-for-lyon-exit",
"isHosted": false,
"pillarId": "pillar/sport",
"pillarName": "Sport"
},
{
"id": "football/2018/aug/29/football-transfer-rumours-raheem-sterling-and-iago-aspas-for-real",
"type": "article",
"sectionId": "football",
"sectionName": "Football",
"webPublicationDate": "2018-08-29T07:12:08Z",
"webTitle": "Football transfer rumours: Raheem Sterling and Iago Aspas for Real?",
"webUrl": "https://www.theguardian.com/football/2018/aug/29/football-transfer-rumours-raheem-sterling-and-iago-aspas-for-real",
"apiUrl": "https://content.guardianapis.com/football/2018/aug/29/football-transfer-rumours-raheem-sterling-and-iago-aspas-for-real",
"isHosted": false,
"pillarId": "pillar/sport",
"pillarName": "Sport"
},
{
"id": "football/2018/aug/24/football-transfer-rumours-kylian-mbappe-neymar-to-leave-psg-real-madrid",
"type": "article",
"sectionId": "football",
"sectionName": "Football",
"webPublicationDate": "2018-08-24T08:18:25Z",
"webTitle": "Football transfer rumours: Kylian Mbappé or Neymar to leave PSG?",
"webUrl": "https://www.theguardian.com/football/2018/aug/24/football-transfer-rumours-kylian-mbappe-neymar-to-leave-psg-real-madrid",
"apiUrl": "https://content.guardianapis.com/football/2018/aug/24/football-transfer-rumours-kylian-mbappe-neymar-to-leave-psg-real-madrid",
"isHosted": false,
"pillarId": "pillar/sport",
"pillarName": "Sport"
},
{
"id": "football/2018/aug/23/football-transfer-rumours-keylor-navas-to-manchester-city",
"type": "article",
"sectionId": "football",
"sectionName": "Football",
"webPublicationDate": "2018-08-23T07:35:13Z",
"webTitle": "Football transfer rumours: Keylor Navas to Manchester City?",
"webUrl": "https://www.theguardian.com/football/2018/aug/23/football-transfer-rumours-keylor-navas-to-manchester-city",
"apiUrl": "https://content.guardianapis.com/football/2018/aug/23/football-transfer-rumours-keylor-navas-to-manchester-city",
"isHosted": false,
"pillarId": "pillar/sport",
"pillarName": "Sport"
},
{
"id": "football/2018/aug/21/football-transfer-rumours-barcelonas-ivan-rakitic-to-psg",
"type": "article",
"sectionId": "football",
"sectionName": "Football",
"webPublicationDate": "2018-08-21T07:47:11Z",
"webTitle": "Football transfer rumours: Barcelona's Ivan Rakitic to PSG?",
"webUrl": "https://www.theguardian.com/football/2018/aug/21/football-transfer-rumours-barcelonas-ivan-rakitic-to-psg",
"apiUrl": "https://content.guardianapis.com/football/2018/aug/21/football-transfer-rumours-barcelonas-ivan-rakitic-to-psg",
"isHosted": false,
"pillarId": "pillar/sport",
"pillarName": "Sport"
},
{
"id": "football/2018/may/31/frank-lampard-manager-derby-zinedine-zidane-real-madrid-fiver",
"type": "article",
"sectionId": "football",
"sectionName": "Football",
"webPublicationDate": "2018-05-31T16:05:28Z",
"webTitle": "A magic football and battles with pirates | The Fiver",
"webUrl": "https://www.theguardian.com/football/2018/may/31/frank-lampard-manager-derby-zinedine-zidane-real-madrid-fiver",
"apiUrl": "https://content.guardianapis.com/football/2018/may/31/frank-lampard-manager-derby-zinedine-zidane-real-madrid-fiver",
"isHosted": false,
"pillarId": "pillar/sport",
"pillarName": "Sport"
},
{
"id": "football/2018/aug/20/football-transfer-rumours-ruben-neves-next-to-join-manchester-city",
"type": "article",
"sectionId": "football",
"sectionName": "Football",
"webPublicationDate": "2018-08-20T08:10:50Z",
"webTitle": "Football transfer rumours: Rúben Neves next to join Manchester City?",
"webUrl": "https://www.theguardian.com/football/2018/aug/20/football-transfer-rumours-ruben-neves-next-to-join-manchester-city",
"apiUrl": "https://content.guardianapis.com/football/2018/aug/20/football-transfer-rumours-ruben-neves-next-to-join-manchester-city",
"isHosted": false,
"pillarId": "pillar/sport",
"pillarName": "Sport"
},
{
"id": "football/2018/aug/31/football-transfer-rumours-ruben-neves-manchester-united-city",
"type": "article",
"sectionId": "football",
"sectionName": "Football",
"webPublicationDate": "2018-08-31T07:48:35Z",
"webTitle": "Football transfer rumours: Rúben Neves to Manchester United or City?",
"webUrl": "https://www.theguardian.com/football/2018/aug/31/football-transfer-rumours-ruben-neves-manchester-united-city",
"apiUrl": "https://content.guardianapis.com/football/2018/aug/31/football-transfer-rumours-ruben-neves-manchester-united-city",
"isHosted": false,
"pillarId": "pillar/sport",
"pillarName": "Sport"
}
]
}
}